{
  "files": {
    "main.css": "/static/css/main.5e2992e8.chunk.css",
    "main.js": "/static/js/main.7ca4e7f6.chunk.js",
    "main.js.map": "/static/js/main.7ca4e7f6.chunk.js.map",
    "runtime-main.js": "/static/js/runtime-main.993ef5da.js",
    "runtime-main.js.map": "/static/js/runtime-main.993ef5da.js.map",
    "static/css/2.89f067aa.chunk.css": "/static/css/2.89f067aa.chunk.css",
    "static/js/2.81a68ccf.chunk.js": "/static/js/2.81a68ccf.chunk.js",
    "static/js/2.81a68ccf.chunk.js.map": "/static/js/2.81a68ccf.chunk.js.map",
    "index.html": "/index.html",
    "precache-manifest.ed0fdafc6b86630274a3a93d86236278.js": "/precache-manifest.ed0fdafc6b86630274a3a93d86236278.js",
    "service-worker.js": "/service-worker.js",
    "static/css/2.89f067aa.chunk.css.map": "/static/css/2.89f067aa.chunk.css.map",
    "static/css/main.5e2992e8.chunk.css.map": "/static/css/main.5e2992e8.chunk.css.map",
    "static/js/2.81a68ccf.chunk.js.LICENSE.txt": "/static/js/2.81a68ccf.chunk.js.LICENSE.txt",
    "static/js/main.7ca4e7f6.chunk.js.LICENSE.txt": "/static/js/main.7ca4e7f6.chunk.js.LICENSE.txt"
  },
  "entrypoints": [
    "static/js/runtime-main.993ef5da.js",
    "static/css/2.89f067aa.chunk.css",
    "static/js/2.81a68ccf.chunk.js",
    "static/css/main.5e2992e8.chunk.css",
    "static/js/main.7ca4e7f6.chunk.js"
  ]
}